-------------------------------------------------------------------------------
Test set: dk.tbsalling.aismessages.ais.messages.PositionReportClassAAssignedScheduleTest
-------------------------------------------------------------------------------
Tests run: 1, Failures: 0, Errors: 0, Skipped: 0, Time elapsed: 0 sec - in dk.tbsalling.aismessages.ais.messages.PositionReportClassAAssignedScheduleTest
