-------------------------------------------------------------------------------
Test set: dk.tbsalling.aismessages.ais.messages.BaseStationReportTest
-------------------------------------------------------------------------------
Tests run: 2, Failures: 0, Errors: 0, Skipped: 0, Time elapsed: 0.011 sec - in dk.tbsalling.aismessages.ais.messages.BaseStationReportTest
